04/14/22 19:42

Problem 1 (5 points):
Score += 5

Problem 2 (10 points):
Score += 10

Problem 3 (15 points):
Score += 15

Problem 4 (10 points):
Score += 10

Problem 5 (5 points):
Score += 5

Code Quality (5 points):
Score += 5

Total score: 50/50 = 100.0%

Excellent!

-------------------------------------------------------------------------------

